[
{"pol":[
{"x":4.843611,"y":8.9000}
,{"x":4.830833,"y":6.9500}
,{"x":4.853611,"y":5.6000}
,{"x":4.904167,"y":2.4500}
,{"x":4.975833,"y":1.7167}
,{"x":5.418889,"y":6.3500}
,{"x":5.533611,"y":-0.3000}
,{"x":5.408056,"y":-2.3833}
,{"x":5.293333,"y":-6.8500}
,{"x":5.242222,"y":-8.2000}
,{"x":5.796111,"y":-9.6667}
,{"x":5.679444,"y":-1.9500}
,{"x":5.919444,"y":7.4000}
,{"x":5.585556,"y":9.9333}
,{"x":5.418889,"y":6.3500}
],"c":"ORI"},
{"pol":[
{"x":5.679444,"y":-1.9500}
,{"x":5.603333,"y":-1.2000}
,{"x":5.533611,"y":-0.3000}
],"c":"ORI"},
{"pol":[
{"x":5.919444,"y":7.4000}
,{"x":6.039722,"y":9.6500}
,{"x":6.126389,"y":14.7667}
,{"x":5.906389,"y":20.2667}
],"c":"ORI"},
{"pol":[
{"x":6.039722,"y":9.6500}
,{"x":6.198889,"y":14.2167}
,{"x":6.065278,"y":20.1333}
],"c":"ORI"},
{"pol":[
{"x":7.576667,"y":31.8833}
,{"x":7.485278,"y":31.7833}
,{"x":7.185833,"y":30.2500}
,{"x":6.732222,"y":25.1333}
,{"x":6.382778,"y":22.5167}
,{"x":6.247778,"y":22.5000}
],"c":"GEM"},
{"pol":[
{"x":6.732222,"y":25.1333}
,{"x":6.482778,"y":20.2167}
],"c":"GEM"},
{"pol":[
{"x":7.740833,"y":24.4000}
,{"x":7.598889,"y":26.9000}
,{"x":7.428889,"y":27.8000}
,{"x":7.185833,"y":30.2500}
,{"x":6.879722,"y":33.9667}
],"c":"GEM"},
{"pol":[
{"x":7.755278,"y":28.0167}
,{"x":7.598889,"y":26.9000}
,{"x":7.335278,"y":21.9833}
,{"x":7.068611,"y":20.5667}
,{"x":6.628611,"y":16.4000}
],"c":"GEM"},
{"pol":[
{"x":7.335278,"y":21.9833}
,{"x":7.301667,"y":16.5333}
,{"x":6.755000,"y":12.9000}
],"c":"GEM"},
{"pol":[
{"x":8.778333,"y":28.7667}
,{"x":8.721389,"y":21.4667}
,{"x":8.744722,"y":18.1500}
,{"x":8.275278,"y":9.2000}
,{"x":8.084444,"y":13.1167}
,{"x":8.721389,"y":21.4667}
],"c":"CNC"},
{"pol":[
{"x":8.744722,"y":18.1500}
,{"x":8.974722,"y":11.8667}
],"c":"CNC"},
{"pol":[
{"x":7.655000,"y":5.2333}
,{"x":7.452500,"y":8.2833}
],"c":"CMI"},
{"pol":[
{"x":6.935833,"y":-17.0500}
,{"x":6.903333,"y":-12.0500}
,{"x":7.062500,"y":-15.6333}
,{"x":6.935833,"y":-17.0500}
,{"x":6.752500,"y":-16.7167}
,{"x":6.631667,"y":-18.2333}
,{"x":6.611389,"y":-19.2500}
,{"x":6.378333,"y":-17.9500}
],"c":"CMA"},
{"pol":[
{"x":6.752500,"y":-16.7167}
,{"x":7.050556,"y":-23.8333}
,{"x":7.140000,"y":-26.4000}
,{"x":6.977222,"y":-28.9667}
,{"x":6.902222,"y":-24.2000}
,{"x":6.611389,"y":-19.2500}
,{"x":6.530833,"y":-23.4167}
],"c":"CMA"},
{"pol":[
{"x":7.140000,"y":-26.4000}
,{"x":7.246667,"y":-26.7667}
,{"x":7.401389,"y":-29.3000}
],"c":"CMA"},
{"pol":[
{"x":6.977222,"y":-28.9667}
,{"x":6.338333,"y":-30.0667}
],"c":"CMA"},
{"pol":[
{"x":6.977222,"y":-28.9667}
,{"x":6.830556,"y":-32.5167}
],"c":"CMA"},
{"pol":[
{"x":6.682778,"y":9.8833}
,{"x":6.548333,"y":7.3333}
,{"x":6.396111,"y":4.6000}
,{"x":6.797778,"y":2.4000}
,{"x":7.197500,"y":-0.5000}
,{"x":8.020278,"y":-1.4000}
,{"x":8.143333,"y":-2.9833}
],"c":"MON"},
{"pol":[
{"x":6.548333,"y":7.3333}
,{"x":6.797778,"y":2.4000}
],"c":"MON"},
{"pol":[
{"x":8.020278,"y":-1.4000}
,{"x":7.687500,"y":-9.5500}
],"c":"MON"},
{"pol":[
{"x":7.197500,"y":-0.5000}
,{"x":6.480278,"y":-7.0333}
,{"x":6.247778,"y":-6.2833}
],"c":"MON"},
{"pol":[
{"x":5.215556,"y":-16.2000}
,{"x":5.545556,"y":-17.8333}
,{"x":5.782500,"y":-14.8333}
,{"x":5.940000,"y":-14.1667}
,{"x":6.102778,"y":-14.9500}
,{"x":5.855278,"y":-20.8667}
,{"x":5.741111,"y":-22.4500}
,{"x":5.470833,"y":-20.7500}
,{"x":5.545556,"y":-17.8333}
],"c":"LEP"},
{"pol":[
{"x":5.470833,"y":-20.7500}
,{"x":5.091111,"y":-22.3667}
,{"x":5.215556,"y":-16.2000}
],"c":"LEP"},
{"pol":[
{"x":5.215556,"y":-16.2000}
,{"x":5.326111,"y":-13.1833}
],"c":"LEP"},
{"pol":[
{"x":5.215556,"y":-16.2000}
,{"x":5.220556,"y":-12.9500}
],"c":"LEP"},
{"pol":[
{"x":10.132222,"y":-0.37}
,{"x":10.505000,"y":-0.63}
,{"x":9.875000,"y":-8.10}
,{"x":10.132222,"y":-0.37}
],"c":"SEX"},
{"pol":[
{"x":8.668333,"y":-35.3000}
,{"x":8.726389,"y":-33.2000}
,{"x":8.842222,"y":-27.7000}
],"c":"PYX"},
{"pol":[
{"x":1.884722,"y":29.5833}
,{"x":2.158889,"y":34.9833}
,{"x":2.288611,"y":33.8500}
,{"x":1.884722,"y":29.5833}
],"c":"TRI"},
{"pol":[
{"x":1.891944,"y":19.2833}
,{"x":1.910833,"y":20.8000}
,{"x":2.119444,"y":23.4500}
,{"x":2.833056,"y":27.2667}
],"c":"ARI"},
{"pol":[
{"x":11.817778,"y":14.5667}
,{"x":11.235000,"y":20.5167}
,{"x":11.038889,"y":20.1833}
,{"x":10.333056,"y":19.8500}
,{"x":10.278333,"y":23.4167}
,{"x":9.879444,"y":26.0167}
,{"x":9.410833,"y":26.1833}
,{"x":9.528611,"y":22.9833}
,{"x":9.764167,"y":23.7667}
,{"x":10.122222,"y":16.7667}
,{"x":11.237500,"y":15.4333}
,{"x":11.235000,"y":20.5167}
],"c":"LEO"},
{"pol":[
{"x":9.764167,"y":23.7667}
,{"x":9.879444,"y":26.0167}
],"c":"LEO"},
{"pol":[
{"x":9.685833,"y":9.9000}
,{"x":10.122222,"y":16.7667}
,{"x":10.139444,"y":11.9667}
,{"x":10.131667,"y":10.0000}
],"c":"LEO"},
{"pol":[
{"x":10.546944,"y":9.3000}
,{"x":11.237500,"y":15.4333}
,{"x":11.398889,"y":10.5333}
,{"x":11.352222,"y":6.0333}
],"c":"LEO"},
{"pol":[
{"x":10.464722,"y":36.7000}
,{"x":10.888333,"y":34.2167}
,{"x":10.123889,"y":35.2500}
,{"x":10.464722,"y":36.7000}
],"c":"LMI"},
{"pol":[
{"x":9.350833,"y":34.4000}
,{"x":9.313889,"y":36.8167}
,{"x":8.380556,"y":43.2000}
,{"x":7.445278,"y":49.2167}
,{"x":6.954444,"y":58.4167}
,{"x":6.326944,"y":59.0167}
],"c":"LYN"},
{"pol":[
{"x":11.764167,"y":6.5167}
,{"x":11.845000,"y":1.7667}
,{"x":12.331667,"y":-0.6667}
,{"x":12.694444,"y":-1.4500}
,{"x":12.926667,"y":3.3833}
,{"x":13.036389,"y":10.9667}
],"c":"VIR"},
{"pol":[
{"x":12.694444,"y":-1.4500}
,{"x":13.165833,"y":-5.5333}
,{"x":13.419722,"y":-11.1500}
,{"x":14.266944,"y":-6.0000}
,{"x":14.717500,"y":-5.6500}
],"c":"VIR"},
{"pol":[
{"x":13.165833,"y":-5.5333}
,{"x":13.578333,"y":-0.6000}
,{"x":14.027222,"y":1.5500}
,{"x":14.770833,"y":1.9000}
],"c":"VIR"},
{"pol":[
{"x":10.779444,"y":-49.4333}
,{"x":9.511667,"y":-40.4667}
,{"x":9.133333,"y":-43.4333}
,{"x":8.158889,"y":-47.3500}
,{"x":8.745278,"y":-54.7167}
,{"x":9.368611,"y":-55.0167}
,{"x":9.947778,"y":-54.5833}
,{"x":10.779444,"y":-49.4333}
],"c":"VEL"},
{"pol":[
{"x":14.660000,"y":-60.8333}
,{"x":14.063889,"y":-60.3667}
,{"x":13.664722,"y":-53.4667}
,{"x":13.925556,"y":-47.3000}
,{"x":13.978056,"y":-44.8000}
,{"x":13.826944,"y":-42.4833}
,{"x":13.825000,"y":-41.6833}
,{"x":14.111389,"y":-36.3833}
],"c":"CEN"},
{"pol":[
{"x":14.985833,"y":-42.1000}
,{"x":14.591667,"y":-42.1500}
,{"x":13.826944,"y":-42.4833}
,{"x":13.343056,"y":-36.7167}
],"c":"CEN"},
{"pol":[
{"x":13.925556,"y":-47.3000}
,{"x":12.691944,"y":-48.9667}
,{"x":12.467500,"y":-50.2333}
,{"x":12.139167,"y":-50.7167}
,{"x":11.350278,"y":-54.5000}
,{"x":11.596389,"y":-63.0167}
],"c":"CEN"},
{"pol":[
{"x":11.611389,"y":-9.8000}
,{"x":11.410278,"y":-10.8667}
,{"x":11.322222,"y":-14.7667}
,{"x":10.996111,"y":-18.3000}
,{"x":11.194167,"y":-22.8333}
,{"x":11.414722,"y":-17.6833}
,{"x":11.746111,"y":-18.3500}
,{"x":11.933611,"y":-17.1500}
],"c":"CRT"},
{"pol":[
{"x":11.414722,"y":-17.6833}
,{"x":11.322222,"y":-14.7667}
],"c":"ANT"},
{"pol":[
{"x":10.945278,"y":-37.1333}
,{"x":10.452778,"y":-31.0833}
,{"x":9.736667,"y":-27.7667}
,{"x":9.487500,"y":-35.9500}
,{"x":10.452778,"y":-31.0833}
],"c":"ANT"},
{"pol":[
{"x":14.106389,"y":-26.6833}
,{"x":13.315278,"y":-23.1833}
,{"x":11.881667,"y":-33.9000}
,{"x":11.550000,"y":-31.8500}
,{"x":10.826944,"y":-16.1833}
,{"x":10.434722,"y":-16.8500}
,{"x":10.176389,"y":-12.3667}
,{"x":9.858056,"y":-14.8500}
,{"x":9.459722,"y":-8.6667}
,{"x":9.664167,"y":-1.1333}
,{"x":9.239444,"y":2.3167}
,{"x":8.923333,"y":5.9500}
,{"x":8.779722,"y":6.4167}
,{"x":8.627778,"y":5.7000}
,{"x":8.646111,"y":3.3500}
,{"x":8.720556,"y":3.3833}
,{"x":8.923333,"y":5.9500}
],"c":"HYA"},
{"pol":[
{"x":8.125833,"y":-24.3000}
,{"x":7.821389,"y":-24.8667}
,{"x":8.059722,"y":-40.0000}
,{"x":7.285833,"y":-37.1000}
,{"x":7.487222,"y":-43.3000}
,{"x":8.059722,"y":-40.0000}
],"c":"PUP"},
{"pol":[
{"x":7.487222,"y":-43.3000}
,{"x":7.226678,"y":-44.6500}
,{"x":6.629444,"y":-43.1833}
,{"x":6.832222,"y":-50.6167}
,{"x":7.226678,"y":-44.6500}
],"c":"PUP"},
{"pol":[
{"x":6.368611,"y":-33.4333}
,{"x":5.959167,"y":-35.2833}
,{"x":5.849444,"y":-35.7667}
,{"x":5.660833,"y":-34.0833}
,{"x":5.520278,"y":-35.4833}
],"c":"COL"},
{"pol":[
{"x":5.849444,"y":-35.7667}
,{"x":5.985833,"y":-42.8167}
],"c":"COL"},
{"pol":[
{"x":6.399167,"y":-52.6833}
,{"x":7.946389,"y":-52.9833}
,{"x":8.375278,"y":-59.5000}
,{"x":9.285000,"y":-59.2667}
,{"x":10.284716,"y":-61.3167}
,{"x":10.533740,"y":-61.6833}
,{"x":10.715833,"y":-64.3833}
,{"x":10.229167,"y":-70.0333}
,{"x":9.220000,"y":-69.7167}
,{"x":9.785000,"y":-65.0667}
,{"x":9.754167,"y":-62.5167}
,{"x":9.285000,"y":-59.2667}
],"c":"CAR"},
{"pol":[
{"x":1.906667,"y":63.6833}
,{"x":1.430278,"y":60.2333}
,{"x":0.945000,"y":60.7167}
,{"x":0.675278,"y":56.5333}
,{"x":0.152778,"y":59.1500}
],"c":"CAS"},
{"pol":[
{"x":6.803333,"y":-61.9333}
,{"x":5.830556,"y":-56.1500}
,{"x":5.788056,"y":-51.0667}
,{"x":6.171667,"y":-54.9667}
,{"x":6.803333,"y":-61.9333}
],"c":"PIC"},
{"pol":[
{"x":4.266944,"y":-51.4833}
,{"x":4.566667,"y":-55.0500}
,{"x":5.091944,"y":-57.4833}
,{"x":5.560278,"y":-62.4833}
,{"x":5.746389,"y":-65.7333}
],"c":"DOR"},

{"pol":[
{"x":1.633056,"y":48.6167}
,{"x":0.945833,"y":38.5000}
,{"x":0.614722,"y":33.7167}
,{"x":0.139722,"y":29.0833}
,{"x":0.655556,"y":30.8667}
,{"x":1.162222,"y":35.6167}
,{"x":2.064722,"y":42.3333}
],"c":"AND"},
{"pol":[
{"x":3.413611,"y":9.0333}
,{"x":3.452778,"y":9.7333}
,{"x":4.011111,"y":12.4833}
,{"x":4.330000,"y":15.6167}
,{"x":4.477778,"y":15.8667}
,{"x":4.598611,"y":16.5000}
,{"x":5.627500,"y":21.1500}
],"c":"TAU"},
{"pol":[
{"x":5.438056,"y":28.6000}
,{"x":4.476944,"y":19.1833}
,{"x":4.382222,"y":17.5333}
,{"x":4.330000,"y":15.6167}
],"c":"TAU"},
{"pol":[
{"x":4.476944,"y":19.1833}
,{"x":3.791389,"y":24.1167}
],"c":"TAU"},
{"pol":[
{"x":5.992222,"y":54.2833}
,{"x":5.992222,"y":44.9500}
,{"x":5.278056,"y":46.0000}
,{"x":5.992222,"y":54.2833}
],"c":"AUR"},
{"pol":[
{"x":5.278056,"y":46.0000}
,{"x":5.032778,"y":43.8333}
,{"x":5.041389,"y":41.0833}
,{"x":4.950000,"y":33.1500}
,{"x":5.438056,"y":28.6000}
,{"x":5.995278,"y":37.2000}
,{"x":5.992222,"y":44.9500}
],"c":"AUR"},
{"pol":[
{"x":4.233333,"y":-42.2833}
,{"x":2.709167,"y":-50.8000}
,{"x":2.623333,"y":-52.5500}
,{"x":2.677778,"y":-54.5500}
],"c":"HOR"},
{"pol":[
{"x":5.073611,"y":-35.4833}
,{"x":4.700833,"y":-37.1333}
,{"x":4.675833,"y":-41.8667}
,{"x":4.513889,"y":-44.9500}
],"c":"CAE"},
{"pol":[
{"x":0.976667,"y":-29.3667}
,{"x":23.815278,"y":-28.1333}
,{"x":23.313889,"y":-32.5333}
,{"x":23.549722,"y":-37.8167}
,{"x":0.465278,"y":-33.0167}
,{"x":0.976667,"y":-29.3667}
],"c":"SCL"},
{"pol":[
{"x":2.658056,"y":0.3333}
,{"x":2.322500,"y":-2.9833}
,{"x":1.857500,"y":-10.3333}
,{"x":1.400278,"y":-8.1833}
,{"x":0.323889,"y":-8.8333}
,{"x":0.726389,"y":-17.9833}
,{"x":2.000278,"y":-21.0833}
,{"x":2.658056,"y":0.3333}
,{"x":2.721667,"y":3.2333}
,{"x":3.038056,"y":4.1000}
,{"x":2.995278,"y":8.9167}
,{"x":2.748889,"y":10.1167}
,{"x":2.469167,"y":8.4667}
,{"x":2.721667,"y":3.2333}
],"c":"CET"},
{"pol":[
{"x":0.726389,"y":-17.9833}
,{"x":1.734444,"y":-15.9333}
],"c":"CET"},
{"pol":[
{"x":3.201111,"y":-28.9833}
,{"x":2.818056,"y":-32.4167}
,{"x":2.075000,"y":-29.3000}
],"c":"FOR"},
{"pol":[
{"x":0.438056,"y":-42.3000}
,{"x":0.436667,"y":-43.6833}
,{"x":1.101389,"y":-46.7167}
,{"x":1.472500,"y":-43.3167}
,{"x":1.520833,"y":-49.0833}
,{"x":1.101389,"y":-46.7167}
],"c":"PHE"},
{"pol":[
{"x":0.436667,"y":-43.6833}
,{"x":1.139722,"y":-55.2500}
,{"x":0.722500,"y":-57.4667}
],"c":"PHE"},
{"pol":[
{"x":0.436667,"y":-43.6833}
,{"x":0.156667,"y":-45.7500}
,{"x":23.584722,"y":-42.6167}
,{"x":23.787778,"y":-50.2333}
,{"x":0.156667,"y":-45.7500}
],"c":"PHE"},
{"pol":[
{"x":4.954722,"y":53.7667}
,{"x":5.056944,"y":60.4500}
,{"x":4.900833,"y":66.3333}
,{"x":3.839444,"y":71.3167}
],"c":"CAM"},
{"pol":[
{"x":4.900833,"y":66.3333}
,{"x":6.314103,"y":69.3167}
,{"x":7.001121,"y":76.9667}
],"c":"CAM"},
{"pol":[
{"x":1.628333,"y":-57.2500}
,{"x":1.932500,"y":-51.6000}
,{"x":2.275000,"y":-51.5167}
,{"x":2.449722,"y":-47.7000}
,{"x":2.677778,"y":-39.8500}
,{"x":2.970833,"y":-40.3000}
,{"x":4.298333,"y":-33.8000}
,{"x":4.400556,"y":-34.0167}
,{"x":4.592500,"y":-30.5667}
,{"x":4.558333,"y":-29.7667}
,{"x":3.998889,"y":-24.0167}
,{"x":3.895000,"y":-24.6000}
,{"x":3.780833,"y":-23.2500}
,{"x":3.563056,"y":-21.6333}
,{"x":3.325278,"y":-21.7500}
,{"x":3.040000,"y":-23.6167}
,{"x":2.850556,"y":-21.0000}
,{"x":2.751667,"y":-18.5833}
,{"x":2.940278,"y":-8.9000}
,{"x":3.263889,"y":-8.8167}
,{"x":3.548889,"y":-9.4667}
,{"x":3.720556,"y":-9.7667}
,{"x":3.769167,"y":-12.1000}
,{"x":3.967222,"y":-13.5167}
,{"x":4.197778,"y":-6.8333}
,{"x":4.605278,"y":-3.3500}
,{"x":4.758333,"y":-3.2500}
,{"x":5.130833,"y":-5.0833}
],"c":"ERI"},
{"pol":[
{"x":0.139722,"y":29.0833}
,{"x":23.063056,"y":28.0833}
,{"x":22.716667,"y":30.2167}
,{"x":22.166667,"y":33.1667}
],"c":"PEG"},
{"pol":[
{"x":0.139722,"y":29.0833}
,{"x":0.220556,"y":15.1833}
,{"x":23.079444,"y":15.2000}
,{"x":23.063056,"y":28.0833}
,{"x":22.833611,"y":24.6000}
,{"x":22.775556,"y":23.5667}
,{"x":22.116667,"y":25.3333}
,{"x":21.744167,"y":25.6500}
],"c":"PEG"},
{"pol":[
{"x":23.079444,"y":15.2000}
,{"x":22.690833,"y":10.8333}
,{"x":22.170000,"y":6.2000}
,{"x":21.736389,"y":9.8833}
],"c":"PEG"},
{"pol":[
{"x":2.845000,"y":55.9000}
,{"x":2.904444,"y":52.7667}
,{"x":3.080000,"y":53.5000}
],"c":"PER"},
{"pol":[
{"x":2.904444,"y":52.7667}
,{"x":3.151111,"y":49.6167}
,{"x":3.405556,"y":49.8500}
],"c":"PER"},
{"pol":[
{"x":2.845000,"y":55.9000}
,{"x":3.080000,"y":53.5000}
,{"x":3.405556,"y":49.8500}
,{"x":3.509444,"y":48.0000}
,{"x":3.753333,"y":42.5833}
,{"x":3.964167,"y":40.0000}
,{"x":3.982500,"y":35.7833}
,{"x":3.902222,"y":31.8833}
,{"x":3.738611,"y":32.2833}
],"c":"PER"},
{"pol":[
{"x":3.405556,"y":49.8500}
,{"x":3.608333,"y":48.2000}
,{"x":3.715278,"y":47.7833}
,{"x":4.144444,"y":47.7167}
,{"x":4.248333,"y":48.4000}
,{"x":4.109722,"y":50.3500}
],"c":"PER"},
{"pol":[
{"x":3.151111,"y":49.6167}
,{"x":3.158333,"y":44.8667}
,{"x":3.136389,"y":40.9500}
,{"x":3.964167,"y":40.0000}
],"c":"PER"},
{"pol":[
{"x":3.136389,"y":40.9500}
,{"x":3.086389,"y":38.8333}
,{"x":2.843056,"y":38.3167}
],"c":"PER"},
{"pol":[
{"x":3.151111,"y":49.6167}
,{"x":2.736667,"y":49.2167}
,{"x":1.727500,"y":50.6833}
],"c":"PER"},
{"pol":[
{"x":1.229167,"y":24.5833}
,{"x":1.194444,"y":30.1000}
,{"x":1.324444,"y":27.2667}
,{"x":1.229167,"y":24.5833}
,{"x":1.524722,"y":15.3500}
,{"x":1.756667,"y":9.1500}
,{"x":2.033889,"y":2.7667}
,{"x":1.892778,"y":3.2000}
,{"x":1.690556,"y":5.4833}
,{"x":1.048889,"y":7.8833}
,{"x":0.811389,"y":7.5833}
,{"x":23.988611,"y":6.8667}
,{"x":23.665833,"y":5.6333}
,{"x":23.466111,"y":6.3833}
,{"x":23.286111,"y":3.2833}
,{"x":23.448889,"y":1.2500}
,{"x":23.700833,"y":1.7833}
,{"x":23.665833,"y":5.6333}
],"c":"PSC"},
{"pol":[
{"x":23.286111,"y":3.2833}
,{"x":23.064444,"y":3.8167}
],"c":"PSC"},
{"pol":[
{"x":13.792222,"y":49.3167}
,{"x":13.398889,"y":54.9333}
,{"x":12.900556,"y":55.9500}
,{"x":12.257222,"y":57.0333}
,{"x":11.062222,"y":61.7500}
,{"x":9.525556,"y":63.0667}
,{"x":8.504444,"y":60.7167}
,{"x":9.849722,"y":59.0500}
,{"x":11.030833,"y":56.3833}
],"c":"UMA"},
{"pol":[
{"x":11.303056,"y":31.5333}
,{"x":11.308056,"y":33.0833}
,{"x":11.767500,"y":47.7833}
,{"x":11.896944,"y":53.7000}
],"c":"UMA"},
{"pol":[
{"x":11.767500,"y":47.7833}
,{"x":11.161111,"y":44.4833}
,{"x":10.371944,"y":41.5000}
,{"x":10.285000,"y":42.9167}
],"c":"UMA"},
{"pol":[
{"x":12.257222,"y":57.0333}
,{"x":11.896944,"y":53.7000}
,{"x":11.030833,"y":56.3833}
,{"x":11.062222,"y":61.7500}
],"c":"UMA"},
{"pol":[
{"x":9.849722,"y":59.0500}
,{"x":9.547500,"y":51.6833}
,{"x":8.986944,"y":48.0333}
,{"x":9.060278,"y":47.1500}
],"c":"UMA"},
{"pol":[
{"x":2.520278,"y":89.2500}
,{"x":17.536389,"y":86.5833}
,{"x":16.766111,"y":82.0333}
,{"x":15.734167,"y":77.8000}
,{"x":16.291667,"y":75.7500}
,{"x":15.345556,"y":71.8333}
,{"x":14.845278,"y":74.1500}
,{"x":15.734167,"y":77.8000}
],"c":"UMI"},
{"pol":[
{"x":23.655556,"y":77.6167}
,{"x":22.828056,"y":66.2000}
,{"x":22.180833,"y":58.2000}
,{"x":21.309722,"y":62.5833}
,{"x":21.477500,"y":70.5500}
,{"x":23.655556,"y":77.6167}
],"c":"CEP"},
{"pol":[
{"x":21.477500,"y":70.5500}
,{"x":22.828056,"y":66.2000}
],"c":"CEP"},
{"pol":[
{"x":8.308889,"y":-76.9167}
,{"x":10.591111,"y":-78.6000}
,{"x":12.305556,"y":-79.3000}
,{"x":10.763056,"y":-80.5500}
,{"x":8.344167,"y":-77.4833}
,{"x":8.308889,"y":-76.9167}
],"c":"CHA"},
{"pol":[
{"x":15.389722,"y":-59.3333}
,{"x":14.708333,"y":-64.9667}
,{"x":15.291944,"y":-58.8000}
],"c":"CIR"},
{"pol":[
{"x":13.166389,"y":17.5167}
,{"x":13.197778,"y":27.8833}
,{"x":12.448889,"y":28.2667}
],"c":"COM"},
{"pol":[
{"x":18.556389,"y":-38.7333}
,{"x":18.729444,"y":-38.3167}
,{"x":18.978889,"y":-37.1000}
,{"x":19.106944,"y":-37.0500}
,{"x":19.157778,"y":-37.9167}
,{"x":19.167222,"y":-39.3333}
,{"x":19.138889,"y":-40.5000}
,{"x":19.051944,"y":-42.1000}
,{"x":18.814167,"y":-43.6667}
,{"x":18.558333,"y":-42.3167}
],"c":"CRA"},
{"pol":[
{"x":15.548889,"y":31.3667}
,{"x":15.463611,"y":29.1000}
,{"x":15.578056,"y":26.7167}
,{"x":15.712500,"y":26.3000}
,{"x":15.826667,"y":26.0667}
,{"x":15.959722,"y":26.8833}
,{"x":16.023889,"y":29.8500}
],"c":"CRB"},
{"pol":[
{"x":12.795556,"y":-59.7000}
,{"x":12.252500,"y":-58.7500}
],"c":"CRU"},
{"pol":[
{"x":12.519444,"y":-57.1167}
,{"x":12.443333,"y":-63.1000}
],"c":"CRU"},
{"pol":[
{"x":12.140000,"y":-24.7167}
,{"x":12.168889,"y":-22.6167}
,{"x":12.263611,"y":-17.5333}
,{"x":12.497500,"y":-16.5167}
,{"x":12.573056,"y":-23.4000}
,{"x":12.168889,"y":-22.6167}
],"c":"CRV"},
{"pol":[
{"x":12.933889,"y":38.3167}
,{"x":12.562500,"y":41.3500}
],"c":"CVN"},
{"pol":[
{"x":19.512500,"y":27.9667}
,{"x":19.842500,"y":32.9167}
,{"x":19.938400,"y":35.0833}
,{"x":20.370278,"y":40.2500}
,{"x":20.690532,"y":45.28034}
],"c":"CYG"},
{"pol":[
{"x":21.215556,"y":30.2333}
,{"x":20.770278,"y":33.9667}
,{"x":20.370278,"y":40.2500}
,{"x":19.749444,"y":45.1333}
,{"x":19.495100,"y":51.72978}
],"c":"CYG"},
{"pol":[
{"x":19.285047,"y":53.36846}
,{"x":19.495100,"y":51.72978}
,{"x":20.257868,"y":47.71423}
,{"x":20.690532,"y":45.28034}
,{"x":20.952894,"y":41.16714}
,{"x":21.215556,"y":30.2333}
],"c":"CYG"},
{"pol":[
{"x":20.553611,"y":11.3000}
,{"x":20.625833,"y":14.6000}
,{"x":20.660833,"y":15.9167}
,{"x":20.777500,"y":16.1333}
,{"x":20.724167,"y":15.0833}
,{"x":20.625833,"y":14.6000}
],"c":"DEL"},
{"pol":[
{"x":11.523333,"y":69.3333}
,{"x":12.558056,"y":69.7833}
,{"x":14.073333,"y":64.3667}
,{"x":15.415556,"y":58.9667}
,{"x":16.031667,"y":58.5667}
,{"x":16.399722,"y":61.5000}
,{"x":17.146667,"y":65.7167}
,{"x":18.351111,"y":72.7333}
,{"x":19.259167,"y":73.3500}
,{"x":19.802778,"y":70.2667}
,{"x":19.209167,"y":67.6667}
,{"x":17.892222,"y":56.8667}
,{"x":17.536111,"y":55.1833}
,{"x":17.507222,"y":52.3167}
,{"x":17.943333,"y":51.4833}
,{"x":17.892222,"y":56.8667}
],"c":"DRA"},
{"pol":[
{"x":21.263889,"y":5.2500}
,{"x":21.172500,"y":10.1333}
,{"x":21.241389,"y":10.0000}
,{"x":21.3816,"y":6.8112}
,{"x":21.263889,"y":5.2500}
],"c":"EQU"},
{"pol":[
{"x":22.137222,"y":-46.9667}
,{"x":22.711111,"y":-46.8833}
,{"x":23.172500,"y":-45.2500}
],"c":"GRU"},
{"pol":[
{"x":23.014722,"y":-52.7500}
,{"x":22.809167,"y":-51.3167}
,{"x":22.711111,"y":-46.8833}
,{"x":22.487778,"y":-43.4833}
,{"x":22.260278,"y":-41.3500}
,{"x":22.101667,"y":-39.5500}
,{"x":21.898889,"y":-37.3667}
],"c":"GRU"},
{"pol":[
{"x":17.250833,"y":36.8000}
,{"x":16.715000,"y":38.9333}
,{"x":16.688056,"y":31.6000}
,{"x":17.005000,"y":30.9167}
,{"x":17.250833,"y":36.8000}
,{"x":17.394722,"y":37.1333}
,{"x":17.937500,"y":37.2500}
,{"x":17.657500,"y":46.0167}
],"c":"HER"},
{"pol":[
{"x":16.328889,"y":46.3167}
,{"x":16.146111,"y":44.9333}
,{"x":16.568333,"y":42.4500}
,{"x":16.715000,"y":38.9333}
],"c":"HER"},
{"pol":[
{"x":16.688056,"y":31.6000}
,{"x":16.503611,"y":21.4833}
,{"x":16.365556,"y":19.1500}
],"c":"HER"},
{"pol":[
{"x":17.962778,"y":29.2500}
,{"x":17.774444,"y":27.7333}
,{"x":17.512222,"y":26.1000}
,{"x":17.250556,"y":24.8333}
,{"x":17.244167,"y":14.3833}
],"c":"HER"},
{"pol":[
{"x":17.005000,"y":30.9167}
,{"x":17.250556,"y":24.8333}
],"c":"HER"},
{"pol":[
{"x":17.962778,"y":29.2500}
,{"x":18.125556,"y":28.7667}
,{"x":18.146111,"y":20.8167}
,{"x":18.395000,"y":21.7667}
,{"x":18.760833,"y":20.5500}
,{"x":18.783611,"y":18.1833}
],"c":"HER"},
{"pol":[
{"x":0.429167,"y":-77.2500}
,{"x":3.787222,"y":-74.2500}
,{"x":2.659722,"y":-68.2667}
,{"x":2.362500,"y":-68.6667}
,{"x":1.979444,"y":-61.5667}
],"c":"HYI"},
{"pol":[
{"x":20.626111,"y":-47.2833}
,{"x":21.330833,"y":-53.4500}
,{"x":21.965278,"y":-54.9833}
],"c":"IND"},
{"pol":[
{"x":21.330833,"y":-53.4500}
,{"x":20.913611,"y":-58.4500}
],"c":"IND"},
{"pol":[
{"x":22.266389,"y":37.7500}
,{"x":22.2313,"y":39.7150}
,{"x":22.508056,"y":43.1333}
,{"x":22.350556,"y":46.5333}
,{"x":22.492222,"y":47.7167}
,{"x":22.408611,"y":49.4667}
,{"x":22.521389,"y":50.2833}
,{"x":22.392778,"y":52.2333}
],"c":"LAC"},
{"pol":[
{"x":15.067778,"y":-25.2833}
,{"x":14.848056,"y":-16.0500}
,{"x":15.283333,"y":-9.3833}
,{"x":15.592222,"y":-14.7833}
,{"x":15.616944,"y":-28.1333}
,{"x":15.644444,"y":-29.7833}
],"c":"LIB"},
{"pol":[
{"x":15.592222,"y":-14.7833}
,{"x":14.848056,"y":-16.0500}
],"c":"LIB"},
{"pol":[
{"x":14.698889,"y":-47.4000}
,{"x":15.204722,"y":-52.1000}
,{"x":15.377778,"y":-44.7000}
,{"x":15.585833,"y":-41.1667}
,{"x":16.002222,"y":-38.4000}
,{"x":16.109722,"y":-36.8000}
,{"x":15.849167,"y":-33.6167}
,{"x":15.363611,"y":-36.2667}
,{"x":15.356111,"y":-40.6500}
,{"x":14.975556,"y":-43.1333}
,{"x":14.698889,"y":-47.4000}
,{"x":14.323333,"y":-46.0667}
],"c":"LUP"},
{"pol":[
{"x":18.746389,"y":37.6000}
,{"x":18.738985,"y":39.67013}
,{"x":18.615556,"y":38.7833}
,{"x":18.746389,"y":37.6000}
,{"x":18.908333,"y":36.9000}
,{"x":18.982222,"y":32.6833}
,{"x":18.834444,"y":33.3667}
,{"x":18.746389,"y":37.6000}
],"c":"LYR"},
{"pol":[
{"x":6.170833,"y":-74.7500}
,{"x":5.531389,"y":-76.3500}
,{"x":4.919722,"y":-74.9333}
,{"x":5.045278,"y":-71.3167}
],"c":"MEN"},
{"pol":[
{"x":20.832778,"y":-33.7833}
,{"x":21.021667,"y":-32.2667}
,{"x":21.299167,"y":-32.1667}
,{"x":21.346111,"y":-40.8167}
,{"x":20.808056,"y":-43.9833}
,{"x":20.832778,"y":-33.7833}
],"c":"MIC"},
{"pol":[
{"x":11.760000,"y":-66.7167}
,{"x":12.292778,"y":-67.9500}
,{"x":12.619722,"y":-69.1333}
,{"x":12.771389,"y":-68.1167}
,{"x":13.037778,"y":-71.5500}
,{"x":12.541111,"y":-72.1333}
,{"x":12.619722,"y":-69.1333}
],"c":"MUS"},
{"pol":[
{"x":16.108056,"y":-45.1667}
,{"x":16.053611,"y":-49.2333}
,{"x":16.330556,"y":-50.1667}
,{"x":16.453056,"y":-47.5667}
,{"x":16.108056,"y":-45.1667}
],"c":"NOR"},
{"pol":[
{"x":22.767500,"y":-81.3833}
,{"x":14.448889,"y":-83.6667}
,{"x":21.691389,"y":-77.3833}
,{"x":22.767500,"y":-81.3833}
],"c":"OCT"},
{"pol":[
{"x":17.582222,"y":12.5667}
,{"x":16.962222,"y":9.3833}
,{"x":16.619167,"y":-10.5667}
,{"x":17.173056,"y":-15.7167}
,{"x":17.724444,"y":4.5667}
,{"x":17.582222,"y":12.5667}
],"c":"OPH"},
{"pol":[
{"x":16.962222,"y":9.3833}
,{"x":16.515278,"y":1.9833}
,{"x":16.238889,"y":-3.6833}
,{"x":16.305278,"y":-4.7000}
],"c":"OPH"},
{"pol":[
{"x":17.724444,"y":4.5667}
,{"x":17.798333,"y":2.7167}
,{"x":18.029167,"y":1.3000}
,{"x":18.090833,"y":2.5000}
,{"x":18.010556,"y":2.9333}
],"c":"OPH"},
{"pol":[
{"x":16.619167,"y":-10.5667}
,{"x":16.518889,"y":-16.6167}
,{"x":16.450556,"y":-18.4667}
,{"x":16.401667,"y":-20.0333}
,{"x":16.535556,"y":-21.4667}
],"c":"OPH"},
{"pol":[
{"x":17.173056,"y":-15.7167}
,{"x":17.350278,"y":-21.1000}
,{"x":17.366667,"y":-25.0000}
,{"x":17.439444,"y":-24.1833}
],"c":"OPH"},
{"pol":[
{"x":20.427222,"y":-56.7333}
,{"x":20.145278,"y":-66.1833}
,{"x":20.749167,"y":-66.2000}
,{"x":21.440833,"y":-65.3667}
,{"x":20.427222,"y":-56.7333}
],"c":"PAV"},
{"pol":[
{"x":20.145278,"y":-66.1833}
,{"x":18.949167,"y":-67.2500}
,{"x":18.717222,"y":-71.4333}
,{"x":20.009722,"y":-72.9000}
,{"x":20.145278,"y":-66.1833}
],"c":"PAV"},
{"pol":[
{"x":18.949167,"y":-67.2500}
,{"x":18.870278,"y":-62.1833}
,{"x":18.522778,"y":-62.2667}
,{"x":18.387222,"y":-61.4833}
,{"x":18.142778,"y":-63.6667}
,{"x":18.522778,"y":-62.2667}
],"c":"PAV"},
{"pol":[
{"x":18.142778,"y":-63.6667}
,{"x":17.762222,"y":-64.7333}
],"c":"PAV"},
{"pol":[
{"x":22.168889,"y":-32.5500}
,{"x":22.525000,"y":-32.3500}
,{"x":22.875278,"y":-32.8667}
,{"x":22.932500,"y":-32.5333}
,{"x":22.960833,"y":-29.6167}
,{"x":22.677778,"y":-27.0500}
,{"x":22.168889,"y":-32.5500}
,{"x":21.795556,"y":-30.9000}
,{"x":21.749167,"y":-33.0333}
,{"x":22.139722,"y":-33.0000}
,{"x":22.168889,"y":-32.5500}
],"c":"PSA"},
{"pol":[
{"x":4.240278,"y":-62.4667}
,{"x":3.736667,"y":-64.8000}
,{"x":3.979167,"y":-61.4000}
,{"x":4.274444,"y":-59.3167}
,{"x":4.240278,"y":-62.4667}
],"c":"RET"},
{"pol":[
{"x":17.512778,"y":-37.3000}
,{"x":17.560000,"y":-37.1000}
,{"x":17.708056,"y":-39.0333}
,{"x":17.793056,"y":-40.1167}
,{"x":17.621944,"y":-43.0000}
,{"x":17.202500,"y":-43.2333}
,{"x":16.909722,"y":-42.3500}
,{"x":16.872222,"y":-38.0167}
,{"x":16.836111,"y":-34.3000}
,{"x":16.598056,"y":-28.2167}
,{"x":16.490278,"y":-26.4333}
,{"x":16.353333,"y":-25.5833}
,{"x":16.200000,"y":-19.4667}
,{"x":16.090556,"y":-19.8000}
,{"x":16.005556,"y":-22.6167}
],"c":"SCO"},
{"pol":[
{"x":16.353333,"y":-25.5833}
,{"x":15.948333,"y":-29.2167}
,{"x":15.980833,"y":-26.1167}
],"c":"SCO"},
{"pol":[
{"x":18.786111,"y":-4.7500}
,{"x":18.586667,"y":-8.2500}
,{"x":18.486667,"y":-14.5667}
],"c":"SCT"},
{"pol":[
{"x":15.769722,"y":15.4167}
,{"x":15.940833,"y":15.6500}
,{"x":15.812222,"y":18.1333}
,{"x":15.769722,"y":15.4167}
,{"x":15.580278,"y":10.5333}
,{"x":15.738056,"y":6.4167}
,{"x":15.846944,"y":4.4833}
,{"x":15.826944,"y":-3.4167}
,{"x":16.305278,"y":-4.7000}
,{"x":16.463611,"y":-8.3667}
,{"x":17.346944,"y":-12.8500}
,{"x":17.626667,"y":-15.4000}
,{"x":17.690278,"y":-12.8667}
,{"x":17.983611,"y":-9.7833}
,{"x":18.355000,"y":-2.8833}
,{"x":18.090833,"y":2.5000}
,{"x":18.010556,"y":2.9333}
,{"x":18.122500,"y":9.5667}
],"c":"SER"},
{"pol":[
{"x":19.979444,"y":19.4833}
,{"x":19.789722,"y":18.5333}
,{"x":19.668333,"y":18.0167}
],"c":"SGE"},
{"pol":[
{"x":19.789722,"y":18.5333}
,{"x":19.683889,"y":17.4833}
],"c":"SGE"},
{"pol":[
{"x":19.043611,"y":-29.8667}
,{"x":19.115556,"y":-27.6667}
,{"x":18.921111,"y":-26.3000}
,{"x":18.761111,"y":-27.0000}
,{"x":19.043611,"y":-29.8667}
],"c":"SGR"},
{"pol":[
{"x":18.761111,"y":-27.0000}
,{"x":18.466111,"y":-25.4333}
,{"x":18.350000,"y":-29.8167}
,{"x":18.096667,"y":-30.4333}
,{"x":18.402778,"y":-34.3833}
,{"x":18.350000,"y":-29.8167}
],"c":"SGR"},
{"pol":[
{"x":18.402778,"y":-34.3833}
,{"x":19.043611,"y":-29.8667}
,{"x":19.398333,"y":-40.6167}
,{"x":19.377222,"y":-44.4667}
],"c":"SGR"},
{"pol":[
{"x":14.797500,"y":-79.0333}
,{"x":16.339167,"y":-78.7000}
,{"x":16.557500,"y":-78.8833}
,{"x":16.717778,"y":-77.5167}
,{"x":16.339167,"y":-78.7000}
],"c":"APS"},
{"pol":[
{"x":18.993,"y":15.068}
,{"x":19.090278,"y":13.8667}
,{"x":19.770833,"y":10.6167}
,{"x":19.846389,"y":8.8667}
,{"x":19.921944,"y":6.4000}
,{"x":20.188333,"y":-0.8167}
,{"x":19.874722,"y":1.0000}
,{"x":19.424722,"y":3.1167}
,{"x":19.090278,"y":13.8667}
],"c":"AQL"},
{"pol":[
{"x":19.424722,"y":3.1167}
,{"x":19.104167,"y":-4.8833}
,{"x":19.0280075,"y":-5.7393}
],"c":"AQL"},
{"pol":[
{"x":23.1575,"y":-21.1723}
,{"x":22.8265,"y":-13.5928}
,{"x":22.8769,"y":-7.5795}
,{"x":23.2387,"y":-6.0498}
,{"x":22.5893,"y":-0.1177}
,{"x":22.4805,"y":-0.0201}
,{"x":22.3610,"y":-1.3873}
,{"x":22.0964,"y":-0.3199}
,{"x":21.5260,"y":-5.5712}
,{"x":20.7946,"y":-9.4959}
],"c":"AQR"},
{"pol":[
{"x":22.0964,"y":-0.3199}
,{"x":22.2806,"y":-7.7834}
,{"x":22.1073,"y":-13.8699}
],"c":"AQR"},
{"pol":[
{"x":17.530833,"y":-49.8833}
,{"x":17.421667,"y":-55.5333}
,{"x":17.423333,"y":-56.3833}
,{"x":17.518333,"y":-60.6833}
],"c":"ARA"},
{"pol":[
{"x":17.421667,"y":-55.5333}
,{"x":16.977222,"y":-55.9833}
],"c":"ARA"},
{"pol":[
{"x":16.993056,"y":-53.1500}
,{"x":16.977222,"y":-55.9833}
,{"x":16.829722,"y":-59.0500}
],"c":"ARA"},
{"pol":[
{"x":8.428889,"y":-66.1333}
,{"x":8.132500,"y":-68.6167}
,{"x":7.696944,"y":-72.6000}
,{"x":7.145833,"y":-70.5000}
,{"x":8.132500,"y":-68.6167}
,{"x":9.040833,"y":-66.4000}
,{"x":8.428889,"y":-66.1333}
],"c":"VOL"},
{"pol":[
{"x":7.280556,"y":-67.9500}
,{"x":8.132500,"y":-68.6167}
,{"x":8.651389,"y":-70.3833}
],"c":"VOL"},
{"pol":[
{"x":19.891111,"y":24.0833}
,{"x":19.478611,"y":24.6667}
,{"x":19.270278,"y":21.4000}
],"c":"VUL"},
{"pol":[
{"x":14.534722,"y":38.3167}
,{"x":14.530556,"y":30.3833}
,{"x":14.261111,"y":19.1833}
,{"x":14.749722,"y":27.0833}
,{"x":15.258333,"y":33.3167}
,{"x":15.032500,"y":40.3833}
,{"x":14.534722,"y":38.3167}
,{"x":14.273056,"y":46.0833}
],"c":"BOO"},
{"pol":[
{"x":15.258333,"y":33.3167}
,{"x":15.408333,"y":37.3833}
],"c":"BOO"},
{"pol":[
{"x":14.685833,"y":13.7167}
,{"x":14.261111,"y":19.1833}
,{"x":13.911389,"y":18.4000}
],"c":"BOO"},
{"pol":[
{"x":21.783889,"y":-16.1333}
,{"x":21.668056,"y":-16.6667}
,{"x":21.370833,"y":-16.8333}
,{"x":21.099167,"y":-17.2333}
,{"x":20.350278,"y":-14.7833}
,{"x":20.300833,"y":-12.5333}
],"c":"CAP"},
{"pol":[
{"x":21.783889,"y":-16.1333}
,{"x":21.6180,"y":-19.4660}
,{"x":21.444444,"y":-22.4167}
,{"x":21.1188,"y":-25.0060}
,{"x":20.8637,"y":-26.9191}
,{"x":20.7682,"y":-25.2716}
,{"x":20.350278,"y":-14.7833}
],"c":"CAP"},
{"pol":[
{"x":23.290556,"y":-58.2333}
,{"x":23.998611,"y":-65.5833}
,{"x":0.334444,"y":-64.8833}
,{"x":0.525833,"y":-62.9667}
,{"x":23.290556,"y":-58.2333}
,{"x":22.308333,"y":-60.2500}
],"c":"TUC"},
{"pol":[
{"x":22.455278,"y":-64.9500}
,{"x":23.290556,"y":-58.2333}
],"c":"TUC"},
{"pol":[
{"x":16.811111,"y":-69.0333}
,{"x":15.919167,"y":-63.4333}
,{"x":15.611944,"y":-66.3167}
,{"x":15.315278,"y":-68.6833}
,{"x":16.811111,"y":-69.0333}
],"c":"TRA"},
{"pol":[
{"x":18.186944,"y":-45.9500}
,{"x":18.449722,"y":-45.9667}
,{"x":18.529167,"y":-45.9167}
,{"x":19.586944,"y":-48.1000}
,{"x":19.380833,"y":-54.4333}
,{"x":18.974444,"y":-52.9333}
,{"x":18.480556,"y":-49.0667}
,{"x":18.186944,"y":-45.9500}
],"c":"TEL"}
]
